{
    "rotrut": [
        {
            "artal": "2009",
            "data": [
                {
                    "manad": "Jan-Dec",
                    "rot": {
                        "utbetalt": "3 364 279 365",
                        "kopare": "268 709",
                        "utforare": "37 316"
                    },
                    "rut": {
                        "utbetalt": "277 013 666",
                        "kopare": "113 237",
                        "utforare": "5 816"
                    }
                },
                {
                    "manad": "Jan",
                    "rot": {
                        "utbetalt": "-",
                        "kopare": "-",
                        "utforare": "-"
                    },
                    "rut": {
                        "utbetalt": "-",
                        "kopare": "-",
                        "utforare": "-"
                    }
                },
                {
                    "manad": "Feb",
                    "rot": {
                        "utbetalt": "-",
                        "kopare": "-",
                        "utforare": "-"
                    },
                    "rut": {
                        "utbetalt": "-",
                        "kopare": "-",
                        "utforare": "-"
                    }
                },
                {
                    "manad": "Mars",
                    "rot": {
                        "utbetalt": "-",
                        "kopare": "-",
                        "utforare": "-"
                    },
                    "rut": {
                        "utbetalt": "-",
                        "kopare": "-",
                        "utforare": "-"
                    }
                },
                {
                    "manad": "April",
                    "rot": {
                        "utbetalt": "-",
                        "kopare": "-",
                        "utforare": "-"
                    },
                    "rut": {
                        "utbetalt": "-",
                        "kopare": "-",
                        "utforare": "-"
                    }
                },
                {
                    "manad": "Maj",
                    "rot": {
                        "utbetalt": "-",
                        "kopare": "-",
                        "utforare": "-"
                    },
                    "rut": {
                        "utbetalt": "-",
                        "kopare": "-",
                        "utforare": "-"
                    }
                },
                {
                    "manad": "Juni",
                    "rot": {
                        "utbetalt": "-",
                        "kopare": "-",
                        "utforare": "-"
                    },
                    "rut": {
                        "utbetalt": "-",
                        "kopare": "-",
                        "utforare": "-"
                    }
                },
                {
                    "manad": "Juli",
                    "rot": {
                        "utbetalt": "66 790 069",
                        "kopare": "4 915",
                        "utforare": "2 742"
                    },
                    "rut": {
                        "utbetalt": "2 733 049",
                        "kopare": "1 821",
                        "utforare": "440"
                    }
                },
                {
                    "manad": "Aug",
                    "rot": {
                        "utbetalt": "269 611 752",
                        "kopare": "22 294",
                        "utforare": "9 283"
                    },
                    "rut": {
                        "utbetalt": "20 798 421",
                        "kopare": "15 461",
                        "utforare": "1 580"
                    }
                },
                {
                    "manad": "Sep",
                    "rot": {
                        "utbetalt": "538 680 986",
                        "kopare": "49 260",
                        "utforare": "15 712"
                    },
                    "rut": {
                        "utbetalt": "47 521 615",
                        "kopare": "36 176",
                        "utforare": "2 666"
                    }
                },
                {
                    "manad": "Oct",
                    "rot": {
                        "utbetalt": "699 107 753",
                        "kopare": "65 617",
                        "utforare": "18 925"
                    },
                    "rut": {
                        "utbetalt": "60 649 434",
                        "kopare": "45 233",
                        "utforare": "3 214"
                    }
                },
                {
                    "manad": "Nov",
                    "rot": {
                        "utbetalt": "888 581 033",
                        "kopare": "85 484",
                        "utforare": "21 898"
                    },
                    "rut": {
                        "utbetalt": "76 823 291",
                        "kopare": "56 211",
                        "utforare": "3 439"
                    }
                },
                {
                    "manad": "Dec",
                    "rot": {
                        "utbetalt": "901 507 772",
                        "kopare": "86 939",
                        "utforare": "22 107"
                    },
                    "rut": {
                        "utbetalt": "68 487 856",
                        "kopare": "49 940",
                        "utforare": "3 509"
                    }
                }
            ]
        },
        {
            "artal": "2010",
            "data": [
                {
                    "manad": "Jan-Dec",
                    "rot": {
                        "utbetalt": "13 164 108 146",
                        "kopare": "854 473",
                        "utforare": "60 509"
                    },
                    "rut": {
                        "utbetalt": "1 340 816 619",
                        "kopare": "319 942",
                        "utforare": "12 204"
                    }
                },
                {
                    "manad": "Jan",
                    "rot": {
                        "utbetalt": "1 571 555 302",
                        "kopare": "128 242",
                        "utforare": "26 874"
                    },
                    "rut": {
                        "utbetalt": "111 802 673",
                        "kopare": "67 599",
                        "utforare": "4 240"
                    }
                },
                {
                    "manad": "Feb",
                    "rot": {
                        "utbetalt": "935 858 486",
                        "kopare": "91 335",
                        "utforare": "24 401"
                    },
                    "rut": {
                        "utbetalt": "89 494 963",
                        "kopare": "60 115",
                        "utforare": "4 273"
                    }
                },
                {
                    "manad": "Mars",
                    "rot": {
                        "utbetalt": "837 940 076",
                        "kopare": "84 491",
                        "utforare": "22 622"
                    },
                    "rut": {
                        "utbetalt": "98 870 651",
                        "kopare": "68 918",
                        "utforare": "4 344"
                    }
                },
                {
                    "manad": "April",
                    "rot": {
                        "utbetalt": "726 524 172",
                        "kopare": "77 525",
                        "utforare": "21 301"
                    },
                    "rut": {
                        "utbetalt": "90 936 643",
                        "kopare": "67 680",
                        "utforare": "4 417"
                    }
                },
                {
                    "manad": "Maj",
                    "rot": {
                        "utbetalt": "797 908 167",
                        "kopare": "81 953",
                        "utforare": "22 335"
                    },
                    "rut": {
                        "utbetalt": "98 679 148",
                        "kopare": "74 166",
                        "utforare": "4 470"
                    }
                },
                {
                    "manad": "Juni",
                    "rot": {
                        "utbetalt": "1 145 872 153",
                        "kopare": "112 636",
                        "utforare": "27 128"
                    },
                    "rut": {
                        "utbetalt": "129 140 085",
                        "kopare": "90 632",
                        "utforare": "5 000"
                    }
                },
                {
                    "manad": "Juli",
                    "rot": {
                        "utbetalt": "1 089 609 885",
                        "kopare": "103 261",
                        "utforare": "26 550"
                    },
                    "rut": {
                        "utbetalt": "119 633 492",
                        "kopare": "85 164",
                        "utforare": "4 798"
                    }
                },
                {
                    "manad": "Aug",
                    "rot": {
                        "utbetalt": "985 915 399",
                        "kopare": "94 886",
                        "utforare": "25 285"
                    },
                    "rut": {
                        "utbetalt": "110 696 466",
                        "kopare": "77 703",
                        "utforare": "4 689"
                    }
                },
                {
                    "manad": "Sep",
                    "rot": {
                        "utbetalt": "981 604 662",
                        "kopare": "100 803",
                        "utforare": "26 081"
                    },
                    "rut": {
                        "utbetalt": "101 119 427",
                        "kopare": "74 892",
                        "utforare": "4 657"
                    }
                },
                {
                    "manad": "Oct",
                    "rot": {
                        "utbetalt": "1 150 850 437",
                        "kopare": "118 427",
                        "utforare": "28 097"
                    },
                    "rut": {
                        "utbetalt": "115 246 453",
                        "kopare": "85 185",
                        "utforare": "4 972"
                    }
                },
                {
                    "manad": "Nov",
                    "rot": {
                        "utbetalt": "1 351 207 716",
                        "kopare": "139 072",
                        "utforare": "30 708"
                    },
                    "rut": {
                        "utbetalt": "129 584 103",
                        "kopare": "95 000",
                        "utforare": "5 292"
                    }
                },
                {
                    "manad": "Dec",
                    "rot": {
                        "utbetalt": "1 589 261 691",
                        "kopare": "149 823",
                        "utforare": "31 622"
                    },
                    "rut": {
                        "utbetalt": "145 612 515",
                        "kopare": "100 278",
                        "utforare": "5 496"
                    }
                }
            ]
        },
        {
            "artal": "2011",
            "data": [
                {
                    "manad": "Jan-Dec",
                    "rot": {
                        "utbetalt": "13 522 072 277",
                        "kopare": "909 655",
                        "utforare": "63 803"
                    },
                    "rut": {
                        "utbetalt": "1 751 540 544",
                        "kopare": "408 128",
                        "utforare": "13 546"
                    }
                },
                {
                    "manad": "Jan",
                    "rot": {
                        "utbetalt": "1 437 885 268",
                        "kopare": "133 762",
                        "utforare": "28 035"
                    },
                    "rut": {
                        "utbetalt": "122 546 266",
                        "kopare": "89 547",
                        "utforare": "5 120"
                    }
                },
                {
                    "manad": "Feb",
                    "rot": {
                        "utbetalt": "933 906 168",
                        "kopare": "97 872",
                        "utforare": "25 213"
                    },
                    "rut": {
                        "utbetalt": "120 894 957",
                        "kopare": "90 295",
                        "utforare": "5 276"
                    }
                },
                {
                    "manad": "Mars",
                    "rot": {
                        "utbetalt": "1 056 428 610",
                        "kopare": "109 195",
                        "utforare": "26 623"
                    },
                    "rut": {
                        "utbetalt": "132 908 491",
                        "kopare": "98 558",
                        "utforare": "5 391"
                    }
                },
                {
                    "manad": "April",
                    "rot": {
                        "utbetalt": "837 024 915",
                        "kopare": "86 728",
                        "utforare": "23 180"
                    },
                    "rut": {
                        "utbetalt": "117 254 364",
                        "kopare": "91 357",
                        "utforare": "4 945"
                    }
                },
                {
                    "manad": "Maj",
                    "rot": {
                        "utbetalt": "1 040 527 373",
                        "kopare": "107 349",
                        "utforare": "26 607"
                    },
                    "rut": {
                        "utbetalt": "155 395 892",
                        "kopare": "115 520",
                        "utforare": "5 696"
                    }
                },
                {
                    "manad": "Juni",
                    "rot": {
                        "utbetalt": "1 008 004 627",
                        "kopare": "101 937",
                        "utforare": "26 268"
                    },
                    "rut": {
                        "utbetalt": "148 121 401",
                        "kopare": "111 693",
                        "utforare": "5 548"
                    }
                },
                {
                    "manad": "Juli",
                    "rot": {
                        "utbetalt": "1 208 979 855",
                        "kopare": "115 153",
                        "utforare": "28 801"
                    },
                    "rut": {
                        "utbetalt": "163 059 479",
                        "kopare": "116 347",
                        "utforare": "6 004"
                    }
                },
                {
                    "manad": "Aug",
                    "rot": {
                        "utbetalt": "1 061 547 973",
                        "kopare": "106 188",
                        "utforare": "27 494"
                    },
                    "rut": {
                        "utbetalt": "150 634 446",
                        "kopare": "107 140",
                        "utforare": "5 686"
                    }
                },
                {
                    "manad": "Sep",
                    "rot": {
                        "utbetalt": "1 058 662 033",
                        "kopare": "109 705",
                        "utforare": "27 778"
                    },
                    "rut": {
                        "utbetalt": "133 605 042",
                        "kopare": "100 225",
                        "utforare": "5 702"
                    }
                },
                {
                    "manad": "Oct",
                    "rot": {
                        "utbetalt": "1 174 057 102",
                        "kopare": "123 085",
                        "utforare": "29 280"
                    },
                    "rut": {
                        "utbetalt": "158 423 179",
                        "kopare": "114 594",
                        "utforare": "6 071"
                    }
                },
                {
                    "manad": "Nov",
                    "rot": {
                        "utbetalt": "1 287 372 059",
                        "kopare": "138 254",
                        "utforare": "30 526"
                    },
                    "rut": {
                        "utbetalt": "173 882 995",
                        "kopare": "126 031",
                        "utforare": "6 299"
                    }
                },
                {
                    "manad": "Dec",
                    "rot": {
                        "utbetalt": "1 417 676 294",
                        "kopare": "142 390",
                        "utforare": "30 858"
                    },
                    "rut": {
                        "utbetalt": "174 814 032",
                        "kopare": "124 225",
                        "utforare": "6 308"
                    }
                }
            ]
        },
        {
            "artal": "2012",
            "data": [
                {
                    "manad": "Jan-Dec",
                    "rot": {
                        "utbetalt": "14 356 725 667",
                        "kopare": "965 411",
                        "utforare": "65 730"
                    },
                    "rut": {
                        "utbetalt": "2 180 670 132",
                        "kopare": "483 100",
                        "utforare": "15 442"
                    }
                },
                {
                    "manad": "Jan",
                    "rot": {
                        "utbetalt": "1 811 731 656",
                        "kopare": "170 328",
                        "utforare": "33 295"
                    },
                    "rut": {
                        "utbetalt": "190 429 270",
                        "kopare": "131 258",
                        "utforare": "6 959"
                    }
                },
                {
                    "manad": "Feb",
                    "rot": {
                        "utbetalt": "972 677 630",
                        "kopare": "101 464",
                        "utforare": "26 608"
                    },
                    "rut": {
                        "utbetalt": "148 574 911",
                        "kopare": "110 849",
                        "utforare": "5 924"
                    }
                },
                {
                    "manad": "Mars",
                    "rot": {
                        "utbetalt": "935 855 766",
                        "kopare": "97 415",
                        "utforare": "25 327"
                    },
                    "rut": {
                        "utbetalt": "150 201 378",
                        "kopare": "114 159",
                        "utforare": "5 762"
                    }
                },
                {
                    "manad": "April",
                    "rot": {
                        "utbetalt": "827 251 449",
                        "kopare": "89 340",
                        "utforare": "24 177"
                    },
                    "rut": {
                        "utbetalt": "147 646 166",
                        "kopare": "114 956",
                        "utforare": "5 813"
                    }
                },
                {
                    "manad": "Maj",
                    "rot": {
                        "utbetalt": "1 043 302 315",
                        "kopare": "106 796",
                        "utforare": "27 180"
                    },
                    "rut": {
                        "utbetalt": "189 278 287",
                        "kopare": "139 791",
                        "utforare": "6 649"
                    }
                },
                {
                    "manad": "Juni",
                    "rot": {
                        "utbetalt": "1 186 378 655",
                        "kopare": "119 504",
                        "utforare": "28 949"
                    },
                    "rut": {
                        "utbetalt": "196 172 365",
                        "kopare": "141 412",
                        "utforare": "6 932"
                    }
                },
                {
                    "manad": "Juli",
                    "rot": {
                        "utbetalt": "1 211 202 355",
                        "kopare": "116 964",
                        "utforare": "29 169"
                    },
                    "rut": {
                        "utbetalt": "201 058 439",
                        "kopare": "140 418",
                        "utforare": "6 838"
                    }
                },
                {
                    "manad": "Aug",
                    "rot": {
                        "utbetalt": "1 128 357 958",
                        "kopare": "115 155",
                        "utforare": "28 965"
                    },
                    "rut": {
                        "utbetalt": "182 165 555",
                        "kopare": "130 251",
                        "utforare": "6 792"
                    }
                },
                {
                    "manad": "Sep",
                    "rot": {
                        "utbetalt": "1 090 069 379",
                        "kopare": "114 177",
                        "utforare": "28 663"
                    },
                    "rut": {
                        "utbetalt": "162 952 071",
                        "kopare": "119 729",
                        "utforare": "6 608"
                    }
                },
                {
                    "manad": "Oct",
                    "rot": {
                        "utbetalt": "1 388 854 635",
                        "kopare": "146 523",
                        "utforare": "32 028"
                    },
                    "rut": {
                        "utbetalt": "209 027 118",
                        "kopare": "147 489",
                        "utforare": "7 300"
                    }
                },
                {
                    "manad": "Nov",
                    "rot": {
                        "utbetalt": "1 348 029 069",
                        "kopare": "145 467",
                        "utforare": "31 363"
                    },
                    "rut": {
                        "utbetalt": "203 870 680",
                        "kopare": "148 252",
                        "utforare": "7 181"
                    }
                },
                {
                    "manad": "Dec",
                    "rot": {
                        "utbetalt": "1 413 014 800",
                        "kopare": "141 340",
                        "utforare": "30 587"
                    },
                    "rut": {
                        "utbetalt": "199 293 892",
                        "kopare": "141 603",
                        "utforare": "7 108"
                    }
                }
            ]
        },
        {
            "artal": "2013",
            "data": [
                {
                    "manad": "Jan-Dec",
                    "rot": {
                        "utbetalt": "14 675 699 487",
                        "kopare": "998 655",
                        "utforare": "65 898"
                    },
                    "rut": {
                        "utbetalt": "2 535 310 312",
                        "kopare": "549 242",
                        "utforare": "16 626"
                    }
                },
                {
                    "manad": "Jan",
                    "rot": {
                        "utbetalt": "1 819 162 649",
                        "kopare": "170 095",
                        "utforare": "33 695"
                    },
                    "rut": {
                        "utbetalt": "232 562 420",
                        "kopare": "159 535",
                        "utforare": "8 093"
                    }
                },
                {
                    "manad": "Feb",
                    "rot": {
                        "utbetalt": "938 807 362",
                        "kopare": "101 250",
                        "utforare": "25 709"
                    },
                    "rut": {
                        "utbetalt": "164 208 723",
                        "kopare": "128 183",
                        "utforare": "6 617"
                    }
                },
                {
                    "manad": "Mars",
                    "rot": {
                        "utbetalt": "893 913 463",
                        "kopare": "94 094",
                        "utforare": "24 299"
                    },
                    "rut": {
                        "utbetalt": "177 888 673",
                        "kopare": "133 470",
                        "utforare": "6 262"
                    }
                },
                {
                    "manad": "April",
                    "rot": {
                        "utbetalt": "962 980 754",
                        "kopare": "103 285",
                        "utforare": "25 691"
                    },
                    "rut": {
                        "utbetalt": "190 931 067",
                        "kopare": "147 802",
                        "utforare": "6 743"
                    }
                },
                {
                    "manad": "Maj",
                    "rot": {
                        "utbetalt": "1 116 774 706",
                        "kopare": "117 509",
                        "utforare": "27 791"
                    },
                    "rut": {
                        "utbetalt": "218 377 891",
                        "kopare": "162 036",
                        "utforare": "7 350"
                    }
                },
                {
                    "manad": "Juni",
                    "rot": {
                        "utbetalt": "1 035 968 238",
                        "kopare": "106 717",
                        "utforare": "26 416"
                    },
                    "rut": {
                        "utbetalt": "214 096 181",
                        "kopare": "157 710",
                        "utforare": "6 951"
                    }
                },
                {
                    "manad": "Juli",
                    "rot": {
                        "utbetalt": "1 319 445 786",
                        "kopare": "128 888",
                        "utforare": "29 969"
                    },
                    "rut": {
                        "utbetalt": "242 538 145",
                        "kopare": "168 934",
                        "utforare": "7 544"
                    }
                },
                {
                    "manad": "Aug",
                    "rot": {
                        "utbetalt": "1 178 027 890",
                        "kopare": "119 990",
                        "utforare": "28 881"
                    },
                    "rut": {
                        "utbetalt": "208 316 673",
                        "kopare": "149 573",
                        "utforare": "7 226"
                    }
                },
                {
                    "manad": "Sep",
                    "rot": {
                        "utbetalt": "1 313 572 412",
                        "kopare": "139 014",
                        "utforare": "30 826"
                    },
                    "rut": {
                        "utbetalt": "204 491 963",
                        "kopare": "145 917",
                        "utforare": "7 409"
                    }
                },
                {
                    "manad": "Oct",
                    "rot": {
                        "utbetalt": "1 502 345 018",
                        "kopare": "160 822",
                        "utforare": "32 812"
                    },
                    "rut": {
                        "utbetalt": "242 697 913",
                        "kopare": "169 611",
                        "utforare": "7 945"
                    }
                },
                {
                    "manad": "Nov",
                    "rot": {
                        "utbetalt": "1 322 437 667",
                        "kopare": "144 931",
                        "utforare": "30 506"
                    },
                    "rut": {
                        "utbetalt": "235 319 433",
                        "kopare": "169 338",
                        "utforare": "7 597"
                    }
                },
                {
                    "manad": "Dec",
                    "rot": {
                        "utbetalt": "1 272 263 542",
                        "kopare": "125 516",
                        "utforare": "26 833"
                    },
                    "rut": {
                        "utbetalt": "203 881 230",
                        "kopare": "144 488",
                        "utforare": "6 463"
                    }
                }
            ]
        },
        {
            "artal": "2014",
            "data": [
                {
                    "manad": "Jan-Dec",
                    "rot": {
                        "utbetalt": "16 895 732 418",
                        "kopare": "1 109 134",
                        "utforare": "67 924"
                    },
                    "rut": {
                        "utbetalt": "3 055 641 297",
                        "kopare": "615 923",
                        "utforare": "17 458"
                    }
                },
                {
                    "manad": "Jan",
                    "rot": {
                        "utbetalt": "1 988 581 807",
                        "kopare": "190 565",
                        "utforare": "34 920"
                    },
                    "rut": {
                        "utbetalt": "282 580 733",
                        "kopare": "187 532",
                        "utforare": "8 551"
                    }
                },
                {
                    "manad": "Feb",
                    "rot": {
                        "utbetalt": "1 177 929 642",
                        "kopare": "125 105",
                        "utforare": "27 995"
                    },
                    "rut": {
                        "utbetalt": "200 814 856",
                        "kopare": "144 730",
                        "utforare": "7 175"
                    }
                },
                {
                    "manad": "Mars",
                    "rot": {
                        "utbetalt": "1 155 039 094",
                        "kopare": "122 895",
                        "utforare": "27 674"
                    },
                    "rut": {
                        "utbetalt": "242 968 332",
                        "kopare": "165 816",
                        "utforare": "6 994"
                    }
                },
                {
                    "manad": "April",
                    "rot": {
                        "utbetalt": "1 302 547 633",
                        "kopare": "136 086",
                        "utforare": "29 570"
                    },
                    "rut": {
                        "utbetalt": "239 816 354",
                        "kopare": "171 408",
                        "utforare": "7 600"
                    }
                },
                {
                    "manad": "Maj",
                    "rot": {
                        "utbetalt": "1 236 205 301",
                        "kopare": "126 729",
                        "utforare": "29 038"
                    },
                    "rut": {
                        "utbetalt": "251 024 010",
                        "kopare": "180 115",
                        "utforare": "7 906"
                    }
                },
                {
                    "manad": "Juni",
                    "rot": {
                        "utbetalt": "1 228 873 992",
                        "kopare": "122 363",
                        "utforare": "28 430"
                    },
                    "rut": {
                        "utbetalt": "262 424 266",
                        "kopare": "186 517",
                        "utforare": "7 736"
                    }
                },
                {
                    "manad": "Juli",
                    "rot": {
                        "utbetalt": "1 505 048 735",
                        "kopare": "142 431",
                        "utforare": "31 677"
                    },
                    "rut": {
                        "utbetalt": "290 579 869",
                        "kopare": "191 433",
                        "utforare": "8 160"
                    }
                },
                {
                    "manad": "Aug",
                    "rot": {
                        "utbetalt": "1 155 025 358",
                        "kopare": "119 974",
                        "utforare": "27 945"
                    },
                    "rut": {
                        "utbetalt": "234 145 735",
                        "kopare": "161 443",
                        "utforare": "7 543"
                    }
                },
                {
                    "manad": "Sep",
                    "rot": {
                        "utbetalt": "1 345 940 409",
                        "kopare": "141 766",
                        "utforare": "30 635"
                    },
                    "rut": {
                        "utbetalt": "229 740 812",
                        "kopare": "163 091",
                        "utforare": "7 850"
                    }
                },
                {
                    "manad": "Oct",
                    "rot": {
                        "utbetalt": "1 525 331 426",
                        "kopare": "161 121",
                        "utforare": "32 853"
                    },
                    "rut": {
                        "utbetalt": "285 817 663",
                        "kopare": "194 813",
                        "utforare": "8 312"
                    }
                },
                {
                    "manad": "Nov",
                    "rot": {
                        "utbetalt": "1 477 805 892",
                        "kopare": "158 450",
                        "utforare": "32 206"
                    },
                    "rut": {
                        "utbetalt": "251 376 847",
                        "kopare": "174 353",
                        "utforare": "8 176"
                    }
                },
                {
                    "manad": "Dec",
                    "rot": {
                        "utbetalt": "1 797 403 129",
                        "kopare": "171 216",
                        "utforare": "32 658"
                    },
                    "rut": {
                        "utbetalt": "284 351 820",
                        "kopare": "193 211",
                        "utforare": "8 280"
                    }
                }
            ]
        },
        {
            "artal": "2015",
            "data": [
                {
                    "manad": "Jan-Dec",
                    "rot": {
                        "utbetalt": "19 911 843 401",
                        "kopare": "1 216 815",
                        "utforare": "67 902"
                    },
                    "rut": {
                        "utbetalt": "3 377 255 267",
                        "kopare": "668 106",
                        "utforare": "17 092"
                    }
                },
                {
                    "manad": "Jan",
                    "rot": {
                        "utbetalt": "2 120 452 552",
                        "kopare": "196 525",
                        "utforare": "35 936"
                    },
                    "rut": {
                        "utbetalt": "330 450 974",
                        "kopare": "203 557",
                        "utforare": "9 215"
                    }
                },
                {
                    "manad": "Feb",
                    "rot": {
                        "utbetalt": "1 040 884 819",
                        "kopare": "110 260",
                        "utforare": "27 047"
                    },
                    "rut": {
                        "utbetalt": "198 463 994",
                        "kopare": "146 657",
                        "utforare": "7 176"
                    }
                },
                {
                    "manad": "Mars",
                    "rot": {
                        "utbetalt": "1 291 726 302",
                        "kopare": "130 461",
                        "utforare": "28 676"
                    },
                    "rut": {
                        "utbetalt": "263 004 039",
                        "kopare": "185 691",
                        "utforare": "7 532"
                    }
                },
                {
                    "manad": "April",
                    "rot": {
                        "utbetalt": "1 006 134 787",
                        "kopare": "106 433",
                        "utforare": "25 121"
                    },
                    "rut": {
                        "utbetalt": "260 113 916",
                        "kopare": "179 773",
                        "utforare": "7 221"
                    }
                },
                {
                    "manad": "Maj",
                    "rot": {
                        "utbetalt": "1 206 527 383",
                        "kopare": "122 335",
                        "utforare": "26 386"
                    },
                    "rut": {
                        "utbetalt": "278 334 261",
                        "kopare": "196 011",
                        "utforare": "7 692"
                    }
                },
                {
                    "manad": "Juni",
                    "rot": {
                        "utbetalt": "1 525 404 454",
                        "kopare": "148 982",
                        "utforare": "29 120"
                    },
                    "rut": {
                        "utbetalt": "302 420 696",
                        "kopare": "207 547",
                        "utforare": "7 911"
                    }
                },
                {
                    "manad": "Juli",
                    "rot": {
                        "utbetalt": "1 572 664 085",
                        "kopare": "144 467",
                        "utforare": "30 335"
                    },
                    "rut": {
                        "utbetalt": "301 827 005",
                        "kopare": "200 715",
                        "utforare": "7 935"
                    }
                },
                {
                    "manad": "Aug",
                    "rot": {
                        "utbetalt": "1 387 139 274",
                        "kopare": "133 285",
                        "utforare": "28 445"
                    },
                    "rut": {
                        "utbetalt": "255 284 378",
                        "kopare": "176 258",
                        "utforare": "7 508"
                    }
                },
                {
                    "manad": "Sep",
                    "rot": {
                        "utbetalt": "1 618 899 656",
                        "kopare": "157 064",
                        "utforare": "30 907"
                    },
                    "rut": {
                        "utbetalt": "252 839 343",
                        "kopare": "178 843",
                        "utforare": "7 845"
                    }
                },
                {
                    "manad": "Oct",
                    "rot": {
                        "utbetalt": "1 790 203 536",
                        "kopare": "171 408",
                        "utforare": "32 008"
                    },
                    "rut": {
                        "utbetalt": "297 636 510",
                        "kopare": "203 197",
                        "utforare": "8 070"
                    }
                },
                {
                    "manad": "Nov",
                    "rot": {
                        "utbetalt": "1 983 443 074",
                        "kopare": "190 481",
                        "utforare": "33 671"
                    },
                    "rut": {
                        "utbetalt": "275 841 137",
                        "kopare": "190 423",
                        "utforare": "8 265"
                    }
                },
                {
                    "manad": "Dec",
                    "rot": {
                        "utbetalt": "3 368 363 479",
                        "kopare": "279 286",
                        "utforare": "39 863"
                    },
                    "rut": {
                        "utbetalt": "361 039 014",
                        "kopare": "223 154",
                        "utforare": "9 187"
                    }
                }
            ]
        },
        {
            "artal": "2016",
            "data": [
                {
                    "manad": "Jan-Dec",
                    "rot": {
                        "utbetalt": "4 569 943 709",
                        "kopare": "439 065",
                        "utforare": "47 699"
                    },
                    "rut": {
                        "utbetalt": "1 032 408 940",
                        "kopare": "352 928",
                        "utforare": "11 526"
                    }
                },
                {
                    "manad": "Jan",
                    "rot": {
                        "utbetalt": "2 652 734 462",
                        "kopare": "237 537",
                        "utforare": "35 362"
                    },
                    "rut": {
                        "utbetalt": "303 403 670",
                        "kopare": "194 906",
                        "utforare": "8 961"
                    }
                },
                {
                    "manad": "Feb",
                    "rot": {
                        "utbetalt": "642 929 994",
                        "kopare": "79 468",
                        "utforare": "22 459"
                    },
                    "rut": {
                        "utbetalt": "200 261 525",
                        "kopare": "156 845",
                        "utforare": "6 193"
                    }
                },
                {
                    "manad": "Mars",
                    "rot": {
                        "utbetalt": "626 025 929",
                        "kopare": "96 598",
                        "utforare": "21 925"
                    },
                    "rut": {
                        "utbetalt": "264 673 295",
                        "kopare": "187 903",
                        "utforare": "6 727"
                    }
                },
                {
                    "manad": "April",
                    "rot": {
                        "utbetalt": "638 932 409",
                        "kopare": "100 211",
                        "utforare": "22 337"
                    },
                    "rut": {
                        "utbetalt": "258 715 865",
                        "kopare": "190 489",
                        "utforare": "7 272"
                    }
                },
                {
                    "manad": "Maj",
                    "rot": {
                        "utbetalt": "9 320 915",
                        "kopare": "1 512",
                        "utforare": "653"
                    },
                    "rut": {
                        "utbetalt": "5 354 585",
                        "kopare": "4 714",
                        "utforare": "386"
                    }
                },
                {
                    "manad": "Juni",
                    "rot": {
                        "utbetalt": "",
                        "kopare": "",
                        "utforare": ""
                    },
                    "rut": {
                        "utbetalt": "",
                        "kopare": "",
                        "utforare": ""
                    }
                },
                {
                    "manad": "Juli",
                    "rot": {
                        "utbetalt": "",
                        "kopare": "",
                        "utforare": ""
                    },
                    "rut": {
                        "utbetalt": "",
                        "kopare": "",
                        "utforare": ""
                    }
                },
                {
                    "manad": "Aug",
                    "rot": {
                        "utbetalt": "",
                        "kopare": "",
                        "utforare": ""
                    },
                    "rut": {
                        "utbetalt": "",
                        "kopare": "",
                        "utforare": ""
                    }
                },
                {
                    "manad": "Sep",
                    "rot": {
                        "utbetalt": "",
                        "kopare": "",
                        "utforare": ""
                    },
                    "rut": {
                        "utbetalt": "",
                        "kopare": "",
                        "utforare": ""
                    }
                },
                {
                    "manad": "Oct",
                    "rot": {
                        "utbetalt": "",
                        "kopare": "",
                        "utforare": ""
                    },
                    "rut": {
                        "utbetalt": "",
                        "kopare": "",
                        "utforare": ""
                    }
                },
                {
                    "manad": "Nov",
                    "rot": {
                        "utbetalt": "",
                        "kopare": "",
                        "utforare": ""
                    },
                    "rut": {
                        "utbetalt": "",
                        "kopare": "",
                        "utforare": ""
                    }
                },
                {
                    "manad": "Dec",
                    "rot": {
                        "utbetalt": "",
                        "kopare": "",
                        "utforare": ""
                    },
                    "rut": {
                        "utbetalt": "",
                        "kopare": "",
                        "utforare": ""
                    }
                }
            ]
        }
    ]
}